^C:\USERS\NAME\SOURCE\REPOS\C++\SORTINGVISUALIZER\BUILD\BIN-INT\DEBUG-X64\APPLICATIONEVENT.OBJ|C:\USERS\NAME\SOURCE\REPOS\C++\SORTINGVISUALIZER\BUILD\BIN-INT\DEBUG-X64\BUTTON.OBJ|C:\USERS\NAME\SOURCE\REPOS\C++\SORTINGVISUALIZER\BUILD\BIN-INT\DEBUG-X64\CLICKEBLEELEMENT.OBJ|C:\USERS\NAME\SOURCE\REPOS\C++\SORTINGVISUALIZER\BUILD\BIN-INT\DEBUG-X64\EVENT.OBJ|C:\USERS\NAME\SOURCE\REPOS\C++\SORTINGVISUALIZER\BUILD\BIN-INT\DEBUG-X64\EVENTHANDLE.OBJ|C:\USERS\NAME\SOURCE\REPOS\C++\SORTINGVISUALIZER\BUILD\BIN-INT\DEBUG-X64\FONTRESOURCE.OBJ|C:\USERS\NAME\SOURCE\REPOS\C++\SORTINGVISUALIZER\BUILD\BIN-INT\DEBUG-X64\GAMESTATE.OBJ|C:\USERS\NAME\SOURCE\REPOS\C++\SORTINGVISUALIZER\BUILD\BIN-INT\DEBUG-X64\GUIELEMENT.OBJ|C:\USERS\NAME\SOURCE\REPOS\C++\SORTINGVISUALIZER\BUILD\BIN-INT\DEBUG-X64\KEYBOARDEVENT.OBJ|C:\USERS\NAME\SOURCE\REPOS\C++\SORTINGVISUALIZER\BUILD\BIN-INT\DEBUG-X64\MAIN.OBJ|C:\USERS\NAME\SOURCE\REPOS\C++\SORTINGVISUALIZER\BUILD\BIN-INT\DEBUG-X64\MOUSEBUTTONEVENT.OBJ|C:\USERS\NAME\SOURCE\REPOS\C++\SORTINGVISUALIZER\BUILD\BIN-INT\DEBUG-X64\MOUSEEVENT.OBJ|C:\USERS\NAME\SOURCE\REPOS\C++\SORTINGVISUALIZER\BUILD\BIN-INT\DEBUG-X64\RESOURCE.OBJ|C:\USERS\NAME\SOURCE\REPOS\C++\SORTINGVISUALIZER\BUILD\BIN-INT\DEBUG-X64\SORTINGALGORITHM.OBJ|C:\USERS\NAME\SOURCE\REPOS\C++\SORTINGVISUALIZER\BUILD\BIN-INT\DEBUG-X64\TEXTURERESOURCE.OBJ|C:\USERS\NAME\SOURCE\REPOS\C++\SORTINGVISUALIZER\BUILD\BIN-INT\DEBUG-X64\TIME.OBJ|C:\USERS\NAME\SOURCE\REPOS\C++\SORTINGVISUALIZER\BUILD\BIN-INT\DEBUG-X64\WINDOW.OBJ
C:\USERS\NAME\SOURCE\REPOS\C++\SORTINGVISUALIZER\DEPENDENCIES\SFML\X64\LIB\SFML-GRAPHICS-S-D.LIB
C:\USERS\NAME\SOURCE\REPOS\C++\SORTINGVISUALIZER\DEPENDENCIES\SFML\X64\LIB\SFML-WINDOW-S-D.LIB
C:\USERS\NAME\SOURCE\REPOS\C++\SORTINGVISUALIZER\DEPENDENCIES\SFML\X64\LIB\SFML-SYSTEM-S-D.LIB
C:\PROGRAM FILES (X86)\WINDOWS KITS\10\LIB\10.0.17763.0\UM\X64\OPENGL32.LIB
C:\PROGRAM FILES (X86)\WINDOWS KITS\10\LIB\10.0.17763.0\UM\X64\WINMM.LIB
C:\PROGRAM FILES (X86)\WINDOWS KITS\10\LIB\10.0.17763.0\UM\X64\GDI32.LIB
C:\USERS\NAME\SOURCE\REPOS\C++\SORTINGVISUALIZER\DEPENDENCIES\SFML\X64\LIB\FREETYPE.LIB
C:\PROGRAM FILES (X86)\WINDOWS KITS\10\LIB\10.0.17763.0\UM\X64\KERNEL32.LIB
C:\PROGRAM FILES (X86)\WINDOWS KITS\10\LIB\10.0.17763.0\UM\X64\USER32.LIB
C:\PROGRAM FILES (X86)\WINDOWS KITS\10\LIB\10.0.17763.0\UM\X64\WINSPOOL.LIB
C:\PROGRAM FILES (X86)\WINDOWS KITS\10\LIB\10.0.17763.0\UM\X64\COMDLG32.LIB
C:\PROGRAM FILES (X86)\WINDOWS KITS\10\LIB\10.0.17763.0\UM\X64\ADVAPI32.LIB
C:\PROGRAM FILES (X86)\WINDOWS KITS\10\LIB\10.0.17763.0\UM\X64\SHELL32.LIB
C:\PROGRAM FILES (X86)\WINDOWS KITS\10\LIB\10.0.17763.0\UM\X64\OLE32.LIB
C:\PROGRAM FILES (X86)\WINDOWS KITS\10\LIB\10.0.17763.0\UM\X64\OLEAUT32.LIB
C:\PROGRAM FILES (X86)\WINDOWS KITS\10\LIB\10.0.17763.0\UM\X64\UUID.LIB
C:\PROGRAM FILES (X86)\WINDOWS KITS\10\LIB\10.0.17763.0\UM\X64\ODBC32.LIB
C:\PROGRAM FILES (X86)\WINDOWS KITS\10\LIB\10.0.17763.0\UM\X64\ODBCCP32.LIB
C:\USERS\NAME\SOURCE\REPOS\C++\SORTINGVISUALIZER\BUILD\BIN-INT\DEBUG-X64\GAMESTATE.OBJ
C:\USERS\NAME\SOURCE\REPOS\C++\SORTINGVISUALIZER\BUILD\BIN-INT\DEBUG-X64\BUTTON.OBJ
C:\USERS\NAME\SOURCE\REPOS\C++\SORTINGVISUALIZER\BUILD\BIN-INT\DEBUG-X64\CLICKEBLEELEMENT.OBJ
C:\USERS\NAME\SOURCE\REPOS\C++\SORTINGVISUALIZER\BUILD\BIN-INT\DEBUG-X64\GUIELEMENT.OBJ
C:\USERS\NAME\SOURCE\REPOS\C++\SORTINGVISUALIZER\BUILD\BIN-INT\DEBUG-X64\APPLICATIONEVENT.OBJ
C:\USERS\NAME\SOURCE\REPOS\C++\SORTINGVISUALIZER\BUILD\BIN-INT\DEBUG-X64\EVENT.OBJ
C:\USERS\NAME\SOURCE\REPOS\C++\SORTINGVISUALIZER\BUILD\BIN-INT\DEBUG-X64\EVENTHANDLE.OBJ
C:\USERS\NAME\SOURCE\REPOS\C++\SORTINGVISUALIZER\BUILD\BIN-INT\DEBUG-X64\KEYBOARDEVENT.OBJ
C:\USERS\NAME\SOURCE\REPOS\C++\SORTINGVISUALIZER\BUILD\BIN-INT\DEBUG-X64\MOUSEBUTTONEVENT.OBJ
C:\USERS\NAME\SOURCE\REPOS\C++\SORTINGVISUALIZER\BUILD\BIN-INT\DEBUG-X64\MOUSEEVENT.OBJ
C:\USERS\NAME\SOURCE\REPOS\C++\SORTINGVISUALIZER\BUILD\BIN-INT\DEBUG-X64\FONTRESOURCE.OBJ
C:\USERS\NAME\SOURCE\REPOS\C++\SORTINGVISUALIZER\BUILD\BIN-INT\DEBUG-X64\RESOURCE.OBJ
C:\USERS\NAME\SOURCE\REPOS\C++\SORTINGVISUALIZER\BUILD\BIN-INT\DEBUG-X64\TEXTURERESOURCE.OBJ
C:\USERS\NAME\SOURCE\REPOS\C++\SORTINGVISUALIZER\BUILD\BIN-INT\DEBUG-X64\TIME.OBJ
C:\USERS\NAME\SOURCE\REPOS\C++\SORTINGVISUALIZER\BUILD\BIN-INT\DEBUG-X64\WINDOW.OBJ
C:\USERS\NAME\SOURCE\REPOS\C++\SORTINGVISUALIZER\BUILD\BIN-INT\DEBUG-X64\MAIN.OBJ
C:\USERS\NAME\SOURCE\REPOS\C++\SORTINGVISUALIZER\BUILD\BIN-INT\DEBUG-X64\SORTINGALGORITHM.OBJ
C:\WINDOWS\SYSTEM32\TZRES.DLL
C:\WINDOWS\GLOBALIZATION\SORTING\SORTDEFAULT.NLS
C:\PROGRAM FILES (X86)\MICROSOFT VISUAL STUDIO\2017\COMMUNITY\VC\TOOLS\MSVC\14.16.27023\LIB\X64\MSVCPRTD.LIB
C:\PROGRAM FILES (X86)\MICROSOFT VISUAL STUDIO\2017\COMMUNITY\VC\TOOLS\MSVC\14.16.27023\LIB\X64\MSVCRTD.LIB
C:\PROGRAM FILES (X86)\MICROSOFT VISUAL STUDIO\2017\COMMUNITY\VC\TOOLS\MSVC\14.16.27023\LIB\X64\OLDNAMES.LIB
C:\PROGRAM FILES (X86)\MICROSOFT VISUAL STUDIO\2017\COMMUNITY\VC\TOOLS\MSVC\14.16.27023\LIB\X64\VCRUNTIMED.LIB
C:\PROGRAM FILES (X86)\WINDOWS KITS\10\LIB\10.0.17763.0\UCRT\X64\UCRTD.LIB
